﻿ig_intelligentsia = {
	color = hsv{ 0.13 0.64 0.99 }
	texture = "gfx/interface/icons/ig_icons/intelligensia.dds"
	layer = "revolution_dynamic_intelligentsia"
	index = 3

	ideologies = {
		ideology_liberal
		ideology_anti_clerical
		ideology_republican
		ideology_anti_slavery
	}

	enable = {
		always = yes
	}

	# Deprecated; use on_enable effect to assign traits instead
	traits = {
		ig_trait_propagandists
		ig_trait_avant_garde
		ig_trait_social_criticism
	}
	
	on_enable = {
		ig:ig_intelligentsia = {
			set_ig_trait = ig_trait:ig_trait_social_criticism
			set_ig_trait = ig_trait:ig_trait_avant_garde
			set_ig_trait = ig_trait:ig_trait_propagandists
		}
	}

	on_disable = {}
	on_character_ig_membership = {}

	pop_potential = {
		literacy_rate > 0.25
		NOT = { is_pop_type = peasants }
	}

	pop_weight = {
		value = 0

		#Anbennar

		add = {
			desc = "POP_ADVENTURERS"
			if = {
				limit = { 
					is_pop_type = adventurers
				}
				value = 100
			}
		}
	
		add = {
			desc = "POP_ACADEMICS"
			if = {
				limit = {
					is_pop_type = academics
				}
				value = 200
			}
		}

		add = {
			desc = "POP_CLERKS"
			if = {
				limit = {
					is_pop_type = clerks
				}
				value = 100
			}
		}

		add = {
			desc = "POP_BUREAUCRATS"
			if = {
				limit = {
					is_pop_type = bureaucrats
				}
				value = 100
			}
		}

		add = {
			desc = "POP_CAPITALISTS"
			if = {
				limit = {
					is_pop_type = capitalists
				}
				value = 50
			}
		}

		add = {
			desc = "POP_ARISTOCRATS"
			if = {
				limit = {
					is_pop_type = aristocrats
				}
				value = 50
			}
		}

		add = {
			desc = "LITERACY_50_60"

			if = {
				limit = {
					literacy_rate >= 0.50
					literacy_rate < 0.60
				}
				add = 10
			}
		}

		add = {
			desc = "LITERACY_60_70"

			if = {
				limit = {
					literacy_rate >= 0.60
					literacy_rate < 0.70
				}
				add = 12
			}
		}

		add = {
			desc = "LITERACY_70_80"

			if = {
				limit = {
					literacy_rate >= 0.70
					literacy_rate < 0.80
				}
				add = 14
			}
		}

		add = {
			desc = "LITERACY_80_90"

			if = {
				limit = {
					literacy_rate >= 0.80
					literacy_rate < 0.90
				}
				add = 16
			}
		}

		add = {
			desc = "LITERACY_90_100"

			if = {
				limit = {
					literacy_rate >= 0.90
				}
				add = 18
			}
		}

		multiply = {
			desc = "LEADER_POPULARITY"
			scope:interest_group = {
				leader = {
					value = popularity
					multiply = 0.0025
					add = 1
					max = 1.25
					min = 0.75
				}
			}
		}

		multiply = {
			desc = "decentralized_power"
			value = 1.0

			if = {
				limit = {
					owner = {
						is_country_type = decentralized
					}
				}
				value = 0.0
			}
		}
		if = {
			limit = {
				scope:interest_group = {
					is_in_government = yes
				}
			}
			multiply = {
				desc = "IN_GOVERNMENT_ATTRACTION"
				value = 1
				add = scope:interest_group.modifier:interest_group_in_government_attraction_mult
				min = 0
			}
		}
	}

	monarch_weight = {
		value = 1
		# Monarch is not likely to adopt a marginal IG
		if = {
			limit = {
				is_marginal = yes
			}
			multiply = {
				value = 0.1
			}
		}
		# Monarch is more likely to adopt a Powerful IG
		if = {
			limit = {
				is_powerful = yes
			}
			multiply = {
				value = 2
			}
		}
		# Much more likely with Technocracy
		if = {
			limit = {
				owner = {
					has_law = law_type:law_technocracy
				}
			}
			multiply = {
				value = 3
			}
		}
		# More likely with Appointed Bureaucrats
		if = {
			limit = {
				owner = {
					has_law = law_type:law_appointed_bureaucrats
				}
			}
			multiply = {
				value = 1.5
			}
		}
		# Impossible without Empiricism
		if = {
			limit = {
				owner = {
					NOT = { has_technology_researched = empiricism }
				}
			}
			multiply = {
				value = 0
			}
		}
	}

	agitator_weight = {
		# Agitators more likely to come from populist IG's rather than elitist
		value = 0.75
		# Agitators will never be part of a marginalized IG
		if = {
			limit = {
				owner.ig:ig_intelligentsia = {
					is_marginal = yes
				}
			}
			multiply = {
				value = 0
			}
		}
	}

	commander_weight = {
		value = 1.0
	}

	noble_chance = {
		value = 0.5
	}

	female_commander_chance = {
		value = 0.0
	}

	female_politician_chance = {
		value = 0.0

		if = {
			limit = {
				owner = {
					has_law = law_type:law_womens_suffrage
				}

			}
			add = {
				value = 0.035
			}
		}
	}

	female_agitator_chance = {
		value = 0.035
		
		if = {
			limit = {
				owner = {
					has_law = law_type:law_women_own_property
				}

			}
			add = {
				value = 0.035
			}
		}	
		
		if = {
			limit = {
				owner = {
					has_law = law_type:law_women_in_the_workplace
				}

			}
			add = {
				value = 0.035
			}
		}

		if = {
			limit = {
				owner = {
					has_law = law_type:law_womens_suffrage
				}

			}
			add = {
				value = 0.035
			}
		}		
	}

	# The chance that a commander belonging to this IG takes over leadership when it changes
	# scope:character is the most popular commander in the IG
	commander_leader_chance = {
		value = 0.25
		if = {
			limit = {
				exists = scope:character
			}
			multiply = {
				value = 1
				add = scope:character.popularity
				min = 0
			}
		}
	}
}
