﻿# Anbennar - changed final hair color value to be 0.99 not 1.0 as 1.0 is used for our special hair colours

eth_placeholder = {

	template = "ethnicity_template"

} 

asian_test = {

	@neg1_min = 0.4
	@neg1_max = 0.5

	@neg2_min = 0.3
	@neg2_max = 0.4

	@neg3_min = 0.1
	@neg3_max = 0.3

	@pos1_min = 0.5
	@pos1_max = 0.6

	@pos2_min = 0.6
	@pos2_max = 0.7

	@pos3_min = 0.7
	@pos3_max = 0.9

	@beauty1min = 0.35
	@beauty1max = 0.65

	@beauty2min = 0.4
	@beauty2max = 0.6

	@beauty3min = 0.45
	@beauty3max = 0.55

	@blend1min = 0.0
	@blend1max = 0.2

	@blend2min = 0.2
	@blend2max = 0.5

	@blend3min = 0.5
	@blend3max = 0.8

	skin_color = {
		10 = { 0.5 0.3 1.0 0.5 }
	}
	eye_color = {
		# # Brown
		# 50 = { 0.05 0.7 0.35 1.0 }
		# Black
		50 = { 0.05 0.95 0.35 1.0 }
	}
	hair_color = {
		# Blonde
		# 10 = { 0.25 0.2 0.75 0.55 }
		# Brown
		2 = { 0.65 0.7 0.9 1.0 }
		# # Red
		# 10 = { 0.85 0.0 1.0 0.5 }
		# Black
		98 = { 0.01 0.9 0.5 0.99 }
	}


	### Additive anim genes ###
    gene_chin_forward = {

        1 = { name = chin_forward   range = { 0.1 0.2 }      }
        7 = { name = chin_forward   range = { 0.2 0.45 }      }
        84 = { name = chin_forward   range = { 0.45 0.55 }      }
        7 = { name = chin_forward   range = { 0.55 0.8 }      }
        1 = { name = chin_forward   range = { 0.8 0.9 }      }

    }

    gene_chin_height = {

        1 = { name = chin_height   range = { 0.1 0.2 }      }
        7 = { name = chin_height   range = { 0.2 0.45 }      }
        84 = { name = chin_height   range = { 0.45 0.55 }      }
        7 = { name = chin_height   range = { 0.55 0.8 }      }
        1 = { name = chin_height   range = { 0.8 0.9 }      }

    }

    gene_chin_width = {

        1 = { name = chin_width   range = { 0.1 0.2 }      }
        17 = { name = chin_width   range = { 0.2 0.45 }      }
        64 = { name = chin_width   range = { 0.45 0.55 }      }
        17 = { name = chin_width   range = { 0.55 0.8 }      }
        1 = { name = chin_width   range = { 0.8 0.9 }      }

    }

    #gene_eye_angle = {

      # 0 = { name = eye_angle_neg    range = { 0.3 0.35 }    }
	  # 0 = { name = eye_angle_neg    range = { 0.35 0.45 }    }
	  # 10 = { name = eye_angle_neg    range = { 0.45 0.5  }    }
	  # 40 = { name = eye_angle_pos    range = { 0.5 0.55  }    }
	  # 40 = { name = eye_angle_pos    range = { 0.55 0.65 }    }
	  # 10 = { name = eye_angle_pos    range = { 0.65 0.7 }    }

   # }

    gene_eye_depth = {

        1 = { name = eye_depth   range = { 0.1 0.2 }      }
        17 = { name = eye_depth   range = { 0.2 0.45 }      }
        64 = { name = eye_depth   range = { 0.45 0.55 }      }
        17 = { name = eye_depth   range = { 0.55 0.8 }      }
        1 = { name = eye_depth   range = { 0.8 0.9 }      }

    }

    gene_eye_distance = {

        1 = { name = eye_distance   range = { 0.1 0.2 }      }
        12 = { name = eye_distance   range = { 0.2 0.45 }      }
        74 = { name = eye_distance   range = { 0.45 0.55 }      }
        12 = { name = eye_distance   range = { 0.55 0.8 }      }
        1 = { name = eye_distance   range = { 0.8 0.9 }      }

    }

    gene_eye_height = {

        1 = { name = eye_height   range = { 0.1 0.2 }      }
        17 = { name = eye_height   range = { 0.2 0.45 }      }
        64 = { name = eye_height   range = { 0.45 0.55 }      }
        17 = { name = eye_height   range = { 0.55 0.8 }      }
        1 = { name = eye_height   range = { 0.8 0.9 }      }

    }

    gene_eye_shut = {

        1 = { name = eye_shut   range = { 0.1 0.2 }      }
        7 = { name = eye_shut   range = { 0.2 0.45 }      }
        84 = { name = eye_shut   range = { 0.45 0.55 }      }
        7 = { name = eye_shut   range = { 0.55 0.8 }      }
        1 = { name = eye_shut   range = { 0.8 0.9 }      }

    }

    gene_forehead_angle = {

        1 = { name = forehead_angle   range = { 0.1 0.2 }      }
        17 = { name = forehead_angle   range = { 0.2 0.45 }      }
        64 = { name = forehead_angle   range = { 0.45 0.55 }      }
        17 = { name = forehead_angle   range = { 0.55 0.8 }      }
        1 = { name = forehead_angle   range = { 0.8 0.9 }      }

    }

    gene_forehead_brow_height = {

        1 = { name = forehead_brow_height   range = { 0.1 0.2 }      }
        17 = { name = forehead_brow_height   range = { 0.2 0.45 }      }
        64 = { name = forehead_brow_height   range = { 0.45 0.55 }      }
        17 = { name = forehead_brow_height   range = { 0.55 0.8 }      }
        1 = { name = forehead_brow_height   range = { 0.8 0.9 }      }

    }

    gene_forehead_height = {

        1 = { name = forehead_height   range = { 0.1 0.2 }      }
        17 = { name = forehead_height   range = { 0.2 0.45 }      }
        64 = { name = forehead_height   range = { 0.45 0.55 }      }
        17 = { name = forehead_height   range = { 0.55 0.8 }      }
        1 = { name = forehead_height   range = { 0.8 0.9 }      }

    }

    gene_forehead_roundness = {

        1 = { name = forehead_roundness   range = { 0.1 0.2 }      }
        17 = { name = forehead_roundness   range = { 0.2 0.45 }      }
        64 = { name = forehead_roundness   range = { 0.45 0.55 }      }
        17 = { name = forehead_roundness   range = { 0.55 0.8 }      }
        1 = { name = forehead_roundness   range = { 0.8 0.9 }      }

    }

    gene_forehead_width = {

        1 = { name = forehead_width   range = { 0.1 0.2 }      }
        7 = { name = forehead_width   range = { 0.2 0.45 }      }
        84 = { name = forehead_width   range = { 0.45 0.55 }      }
        7 = { name = forehead_width   range = { 0.55 0.8 }      }
        1 = { name = forehead_width   range = { 0.8 0.9 }      }

    }

    gene_head_height = {

        1 = { name = head_height   range = { 0.1 0.2 }      }
        7 = { name = head_height   range = { 0.2 0.45 }      }
        84 = { name = head_height   range = { 0.45 0.55 }      }
        7 = { name = head_height   range = { 0.55 0.8 }      }
        1 = { name = head_height   range = { 0.8 0.9 }      }

    }

    gene_head_profile = {

        1 = { name = head_profile   range = { 0.1 0.2 }      }
        17 = { name = head_profile   range = { 0.2 0.45 }      }
        64 = { name = head_profile   range = { 0.45 0.55 }      }
        17 = { name = head_profile   range = { 0.55 0.8 }      }
        1 = { name = head_profile   range = { 0.8 0.9 }      }

    }

    gene_head_top_height = {

        1 = { name = head_top_height   range = { 0.1 0.2 }      }
        7 = { name = head_top_height   range = { 0.2 0.45 }      }
        84 = { name = head_top_height   range = { 0.45 0.55 }      }
        7 = { name = head_top_height   range = { 0.55 0.8 }      }
        1 = { name = head_top_height   range = { 0.8 0.9 }      }

    }

    gene_head_top_width = {

        1 = { name = head_top_width   range = { 0.1 0.2 }      }
        7 = { name = head_top_width   range = { 0.2 0.45 }      }
        84 = { name = head_top_width   range = { 0.45 0.55 }      }
        7 = { name = head_top_width   range = { 0.55 0.8 }      }
        1 = { name = head_top_width   range = { 0.8 0.9 }      }

    }

    gene_head_width = {

        1 = { name = head_width   range = { 0.1 0.2 }      }
        17 = { name = head_width   range = { 0.2 0.45 }      }
        64 = { name = head_width   range = { 0.45 0.55 }      }
        17 = { name = head_width   range = { 0.55 0.8 }      }
        1 = { name = head_width   range = { 0.8 0.9 }      }

    }

    gene_jaw_angle = {

        1 = { name = jaw_angle   range = { 0.1 0.2 }      }
        17 = { name = jaw_angle   range = { 0.2 0.45 }      }
        64 = { name = jaw_angle   range = { 0.45 0.55 }      }
        17 = { name = jaw_angle   range = { 0.55 0.8 }      }
        1 = { name = jaw_angle   range = { 0.8 0.9 }      }

    }

    gene_jaw_forward = {

        1 = { name = jaw_forward   range = { 0.1 0.2 }      }
        7 = { name = jaw_forward   range = { 0.2 0.45 }      }
        84 = { name = jaw_forward   range = { 0.45 0.55 }      }
        7 = { name = jaw_forward   range = { 0.55 0.8 }      }
        1 = { name = jaw_forward   range = { 0.8 0.9 }      }

    }

    gene_jaw_height = {

        1 = { name = jaw_height   range = { 0.1 0.2 }      }
        7 = { name = jaw_height   range = { 0.2 0.45 }      }
        84 = { name = jaw_height   range = { 0.45 0.55 }      }
        7 = { name = jaw_height   range = { 0.55 0.8 }      }
        1 = { name = jaw_height   range = { 0.8 0.9 }      }

    }

    gene_jaw_width = {

        1 = { name = jaw_width   range = { 0.1 0.2 }      }
        17 = { name = jaw_width   range = { 0.2 0.45 }      }
        64 = { name = jaw_width   range = { 0.45 0.55 }      }
        17 = { name = jaw_width   range = { 0.55 0.8 }      }
        1 = { name = jaw_width   range = { 0.8 0.9 }      }

    }

    gene_mouth_corner_height = {

        1 = { name = mouth_corner_height   range = { 0.1 0.2 }      }
        12 = { name = mouth_corner_height   range = { 0.2 0.45 }      }
        74 = { name = mouth_corner_height   range = { 0.45 0.55 }      }
        12 = { name = mouth_corner_height   range = { 0.55 0.8 }      }
        1 = { name = mouth_corner_height   range = { 0.8 0.9 }      }

    }

    gene_mouth_forward = {

        1 = { name = mouth_forward   range = { 0.1 0.2 }      }
        7 = { name = mouth_forward   range = { 0.2 0.45 }      }
        84 = { name = mouth_forward   range = { 0.45 0.55 }      }
        7 = { name = mouth_forward   range = { 0.55 0.8 }      }
        1 = { name = mouth_forward   range = { 0.8 0.9 }      }

    }

    gene_mouth_height = {

        1 = { name = mouth_height   range = { 0.1 0.2 }      }
        17 = { name = mouth_height   range = { 0.2 0.45 }      }
        64 = { name = mouth_height   range = { 0.45 0.55 }      }
        17 = { name = mouth_height   range = { 0.55 0.8 }      }
        1 = { name = mouth_height   range = { 0.8 0.9 }      }

    }

    gene_mouth_lower_lip_size = {

        1 = { name = mouth_lower_lip_size   range = { 0.1 0.2 }      }
        7 = { name = mouth_lower_lip_size   range = { 0.2 0.45 }      }
        84 = { name = mouth_lower_lip_size   range = { 0.45 0.55 }      }
        7 = { name = mouth_lower_lip_size   range = { 0.55 0.8 }      }
        1 = { name = mouth_lower_lip_size   range = { 0.8 0.9 }      }

    }

    gene_mouth_open = {

        1 = { name = mouth_open   range = { 0.1 0.2 }      }
        7 = { name = mouth_open   range = { 0.2 0.45 }      }
        84 = { name = mouth_open   range = { 0.45 0.55 }      }
        7 = { name = mouth_open   range = { 0.55 0.8 }      }
        1 = { name = mouth_open   range = { 0.8 0.9 }      }

    }

    gene_mouth_upper_lip_size = {

        1 = { name = mouth_upper_lip_size   range = { 0.1 0.2 }      }
        7 = { name = mouth_upper_lip_size   range = { 0.2 0.45 }      }
        84 = { name = mouth_upper_lip_size   range = { 0.45 0.55 }      }
        7 = { name = mouth_upper_lip_size   range = { 0.55 0.8 }      }
        1 = { name = mouth_upper_lip_size   range = { 0.8 0.9 }      }

    }

    gene_mouth_width = {

        1 = { name = mouth_width   range = { 0.1 0.2 }      }
        17 = { name = mouth_width   range = { 0.2 0.45 }      }
        64 = { name = mouth_width   range = { 0.45 0.55 }      }
        17 = { name = mouth_width   range = { 0.55 0.8 }      }
        1 = { name = mouth_width   range = { 0.8 0.9 }      }

    }

    gene_neck_length = {

        1 = { name = neck_length   range = { 0.1 0.2 }      }
        17 = { name = neck_length   range = { 0.2 0.45 }      }
        64 = { name = neck_length   range = { 0.45 0.55 }      }
        17 = { name = neck_length   range = { 0.55 0.8 }      }
        1 = { name = neck_length   range = { 0.8 0.9 }      }

    }

    gene_neck_width = {

        1 = { name = neck_width   range = { 0.1 0.2 }      }
        17 = { name = neck_width   range = { 0.2 0.45 }      }
        64 = { name = neck_width   range = { 0.45 0.55 }      }
        17 = { name = neck_width   range = { 0.55 0.8 }      }
        1 = { name = neck_width   range = { 0.8 0.9 }      }

    }

    ### Blend shape genes ###
    gene_cheek_fat = {

        1 = { name = cheek_fat   range = { 0.1 0.2 }      }
        17 = { name = cheek_fat   range = { 0.2 0.45 }      }
        64 = { name = cheek_fat   range = { 0.45 0.55 }      }
        17 = { name = cheek_fat   range = { 0.55 0.8 }      }
        1 = { name = cheek_fat   range = { 0.8 0.9 }      }

    }

    gene_cheek_forward = {

        1 = { name = cheek_forward   range = { 0.1 0.2 }      }
        7 = { name = cheek_forward   range = { 0.2 0.45 }      }
        84 = { name = cheek_forward   range = { 0.45 0.55 }      }
        7 = { name = cheek_forward   range = { 0.55 0.8 }      }
        1 = { name = cheek_forward   range = { 0.8 0.9 }      }

    }

    gene_cheek_height = {

        1 = { name = cheek_height   range = { 0.1 0.2 }      }
        7 = { name = cheek_height   range = { 0.2 0.45 }      }
        84 = { name = cheek_height   range = { 0.45 0.55 }      }
        7 = { name = cheek_height   range = { 0.55 0.8 }      }
        1 = { name = cheek_height   range = { 0.8 0.9 }      }

    }

    gene_cheek_prom = {

        1 = { name = cheek_prom   range = { 0.1 0.2 }      }
        7 = { name = cheek_prom   range = { 0.2 0.45 }      }
        84 = { name = cheek_prom   range = { 0.45 0.55 }      }
        7 = { name = cheek_prom   range = { 0.55 0.8 }      }
        1 = { name = cheek_prom   range = { 0.8 0.9 }      }

    }

    gene_cheek_width = {

        1 = { name = cheek_width   range = { 0.1 0.2 }      }
        7 = { name = cheek_width   range = { 0.2 0.45 }      }
        84 = { name = cheek_width   range = { 0.45 0.55 }      }
        7 = { name = cheek_width   range = { 0.55 0.8 }      }
        1 = { name = cheek_width   range = { 0.8 0.9 }      }

    }

    gene_ear_angle = {

        1 = { name = ear_angle   range = { 0.1 0.2 }      }
        17 = { name = ear_angle   range = { 0.2 0.45 }      }
        64 = { name = ear_angle   range = { 0.45 0.55 }      }
        17 = { name = ear_angle   range = { 0.55 0.8 }      }
        1 = { name = ear_angle   range = { 0.8 0.9 }      }

    }

    gene_ear_inner_shape = {

        1 = { name = ear_inner_shape   range = { 0.1 0.2 }      }
        17 = { name = ear_inner_shape   range = { 0.2 0.45 }      }
        64 = { name = ear_inner_shape   range = { 0.45 0.55 }      }
        17 = { name = ear_inner_shape   range = { 0.55 0.8 }      }
        1 = { name = ear_inner_shape   range = { 0.8 0.9 }      }

    }

    gene_ear_lower_bend = {

        1 = { name = ear_lower_bend   range = { 0.1 0.2 }      }
        17 = { name = ear_lower_bend   range = { 0.2 0.45 }      }
        64 = { name = ear_lower_bend   range = { 0.45 0.55 }      }
        17 = { name = ear_lower_bend   range = { 0.55 0.8 }      }
        1 = { name = ear_lower_bend   range = { 0.8 0.9 }      }

    }

    gene_ear_out = {

        1 = { name = ear_out   range = { 0.1 0.2 }      }
        17 = { name = ear_out   range = { 0.2 0.45 }      }
        64 = { name = ear_out   range = { 0.45 0.55 }      }
        17 = { name = ear_out   range = { 0.55 0.8 }      }
        1 = { name = ear_out   range = { 0.8 0.9 }      }

    }

    gene_ear_size = {

        1 = { name = ear_size   range = { 0.1 0.2 }      }
        7 = { name = ear_size   range = { 0.2 0.45 }      }
        84 = { name = ear_size   range = { 0.45 0.55 }      }
        7 = { name = ear_size   range = { 0.55 0.8 }      }
        1 = { name = ear_size   range = { 0.8 0.9 }      }

    }

    gene_ear_upper_bend = {

        1 = { name = ear_upper_bend   range = { 0.1 0.2 }      }
        7 = { name = ear_upper_bend   range = { 0.2 0.45 }      }
        84 = { name = ear_upper_bend   range = { 0.45 0.55 }      }
        7 = { name = ear_upper_bend   range = { 0.55 0.8 }      }
        1 = { name = ear_upper_bend   range = { 0.8 0.9 }      }

    }

    gene_eye_corner_def = {

        1 = { name = eye_corner_def   range = { 0.1 0.2 }      }
        7 = { name = eye_corner_def   range = { 0.2 0.45 }      }
        84 = { name = eye_corner_def   range = { 0.45 0.55 }      }
        7 = { name = eye_corner_def   range = { 0.55 0.8 }      }
        1 = { name = eye_corner_def   range = { 0.8 0.9 }      }

    }

    gene_eye_corner_depth_min = {

        1 = { name = eye_corner_depth_min   range = { 0.1 0.2 }      }
        17 = { name = eye_corner_depth_min   range = { 0.2 0.45 }      }
        64 = { name = eye_corner_depth_min   range = { 0.45 0.55 }      }
        17 = { name = eye_corner_depth_min   range = { 0.55 0.8 }      }
        1 = { name = eye_corner_depth_min   range = { 0.8 0.9 }      }

    }

    gene_eye_fold_droop = {

        1 = { name = eye_fold_droop   range = { 0.1 0.2 }      }
        17 = { name = eye_fold_droop   range = { 0.2 0.45 }      }
        64 = { name = eye_fold_droop   range = { 0.45 0.55 }      }
        17 = { name = eye_fold_droop   range = { 0.55 0.8 }      }
        1 = { name = eye_fold_droop   range = { 0.8 0.9 }      }

    }

    gene_eye_fold_shape = {

        1 = { name = eye_fold_shape   range = { 0.1 0.2 }      }
        17 = { name = eye_fold_shape   range = { 0.2 0.45 }      }
        64 = { name = eye_fold_shape   range = { 0.45 0.55 }      }
        17 = { name = eye_fold_shape   range = { 0.55 0.8 }      }
        1 = { name = eye_fold_shape   range = { 0.8 0.9 }      }

    }

    gene_eye_size = {

        1 = { name = eye_size   range = { 0.1 0.2 }      }
        17 = { name = eye_size   range = { 0.2 0.45 }      }
        64 = { name = eye_size   range = { 0.45 0.55 }      }
        17 = { name = eye_size   range = { 0.55 0.8 }      }
        1 = { name = eye_size   range = { 0.8 0.9 }      }

    }

    gene_eye_upper_lid_size = {

        1 = { name = eye_upper_lid_size   range = { 0.1 0.2 }      }
        17 = { name = eye_upper_lid_size   range = { 0.2 0.45 }      }
        64 = { name = eye_upper_lid_size   range = { 0.45 0.55 }      }
        17 = { name = eye_upper_lid_size   range = { 0.55 0.8 }      }
        1 = { name = eye_upper_lid_size   range = { 0.8 0.9 }      }

    }

    gene_forehead_brow_curve = {

        1 = { name = forehead_brow_curve   range = { 0.1 0.2 }      }
        17 = { name = forehead_brow_curve   range = { 0.2 0.45 }      }
        64 = { name = forehead_brow_curve   range = { 0.45 0.55 }      }
        17 = { name = forehead_brow_curve   range = { 0.55 0.8 }      }
        1 = { name = forehead_brow_curve   range = { 0.8 0.9 }      }

    }

    gene_forehead_brow_forward = {

        1 = { name = forehead_brow_forward   range = { 0.1 0.2 }      }
        7 = { name = forehead_brow_forward   range = { 0.2 0.45 }      }
        84 = { name = forehead_brow_forward   range = { 0.45 0.55 }      }
        7 = { name = forehead_brow_forward   range = { 0.55 0.8 }      }
        1 = { name = forehead_brow_forward   range = { 0.8 0.9 }      }

    }

    gene_forehead_brow_inner_height = {

        1 = { name = forehead_brow_inner_height   range = { 0.1 0.2 }      }
        7 = { name = forehead_brow_inner_height   range = { 0.2 0.45 }      }
        84 = { name = forehead_brow_inner_height   range = { 0.45 0.55 }      }
        7 = { name = forehead_brow_inner_height   range = { 0.55 0.8 }      }
        1 = { name = forehead_brow_inner_height   range = { 0.8 0.9 }      }

    }

    gene_forehead_brow_outer_height = {

        1 = { name = forehead_brow_outer_height   range = { 0.1 0.2 }      }
        7 = { name = forehead_brow_outer_height   range = { 0.2 0.45 }      }
        84 = { name = forehead_brow_outer_height   range = { 0.45 0.55 }      }
        7 = { name = forehead_brow_outer_height   range = { 0.55 0.8 }      }
        1 = { name = forehead_brow_outer_height   range = { 0.8 0.9 }      }

    }

    gene_forehead_brow_width = {

        1 = { name = forehead_brow_width   range = { 0.1 0.2 }      }
        7 = { name = forehead_brow_width   range = { 0.2 0.45 }      }
        84 = { name = forehead_brow_width   range = { 0.45 0.55 }      }
        7 = { name = forehead_brow_width   range = { 0.55 0.8 }      }
        1 = { name = forehead_brow_width   range = { 0.8 0.9 }      }

    }

    gene_forehead_roundness = {

        1 = { name = forehead_roundness   range = { 0.1 0.2 }      }
        17 = { name = forehead_roundness   range = { 0.2 0.45 }      }
        64 = { name = forehead_roundness   range = { 0.45 0.55 }      }
        17 = { name = forehead_roundness   range = { 0.55 0.8 }      }
        1 = { name = forehead_roundness   range = { 0.8 0.9 }      }

    }

    gene_jaw_def = {

        1 = { name = jaw_def   range = { 0.1 0.2 }      }
        17 = { name = jaw_def   range = { 0.2 0.45 }      }
        64 = { name = jaw_def   range = { 0.45 0.55 }      }
        17 = { name = jaw_def   range = { 0.55 0.8 }      }
        1 = { name = jaw_def   range = { 0.8 0.9 }      }

    }

    gene_mouth_lower_lip_def = {

        1 = { name = mouth_lower_lip_def   range = { 0.1 0.2 }      }
        17 = { name = mouth_lower_lip_def   range = { 0.2 0.45 }      }
        64 = { name = mouth_lower_lip_def   range = { 0.45 0.55 }      }
        17 = { name = mouth_lower_lip_def   range = { 0.55 0.8 }      }
        1 = { name = mouth_lower_lip_def   range = { 0.8 0.9 }      }

    }

    gene_mouth_lower_lip_full = {

        1 = { name = mouth_lower_lip_full   range = { 0.1 0.2 }      }
        17 = { name = mouth_lower_lip_full   range = { 0.2 0.45 }      }
        64 = { name = mouth_lower_lip_full   range = { 0.45 0.55 }      }
        17 = { name = mouth_lower_lip_full   range = { 0.55 0.8 }      }
        1 = { name = mouth_lower_lip_full   range = { 0.8 0.9 }      }

    }

    gene_mouth_lower_lip_pads = {

        1 = { name = mouth_lower_lip_pads   range = { 0.1 0.2 }      }
        17 = { name = mouth_lower_lip_pads   range = { 0.2 0.45 }      }
        64 = { name = mouth_lower_lip_pads   range = { 0.45 0.55 }      }
        17 = { name = mouth_lower_lip_pads   range = { 0.55 0.8 }      }
        1 = { name = mouth_lower_lip_pads   range = { 0.8 0.9 }      }

    }

    gene_mouth_lower_lip_width = {

        1 = { name = mouth_lower_lip_width   range = { 0.1 0.2 }      }
        7 = { name = mouth_lower_lip_width   range = { 0.2 0.45 }      }
        84 = { name = mouth_lower_lip_width   range = { 0.45 0.55 }      }
        7 = { name = mouth_lower_lip_width   range = { 0.55 0.8 }      }
        1 = { name = mouth_lower_lip_width   range = { 0.8 0.9 }      }

    }

    gene_mouth_philtrum_curve = {

        1 = { name = mouth_philtrum_curve   range = { 0.1 0.2 }      }
        17 = { name = mouth_philtrum_curve   range = { 0.2 0.45 }      }
        64 = { name = mouth_philtrum_curve   range = { 0.45 0.55 }      }
        17 = { name = mouth_philtrum_curve   range = { 0.55 0.8 }      }
        1 = { name = mouth_philtrum_curve   range = { 0.8 0.9 }      }

    }

    gene_mouth_philtrum_def = {

        1 = { name = mouth_philtrum_def   range = { 0.1 0.2 }      }
        17 = { name = mouth_philtrum_def   range = { 0.2 0.45 }      }
        64 = { name = mouth_philtrum_def   range = { 0.45 0.55 }      }
        17 = { name = mouth_philtrum_def   range = { 0.55 0.8 }      }
        1 = { name = mouth_philtrum_def   range = { 0.8 0.9 }      }

    }

    gene_mouth_philtrum_width = {

        1 = { name = mouth_philtrum_width   range = { 0.1 0.2 }      }
        7 = { name = mouth_philtrum_width   range = { 0.2 0.45 }      }
        84 = { name = mouth_philtrum_width   range = { 0.45 0.55 }      }
        7 = { name = mouth_philtrum_width   range = { 0.55 0.8 }      }
        1 = { name = mouth_philtrum_width   range = { 0.8 0.9 }      }

    }

    gene_mouth_upper_lip_curve = {

        1 = { name = mouth_upper_lip_curve   range = { 0.1 0.2 }      }
        17 = { name = mouth_upper_lip_curve   range = { 0.2 0.45 }      }
        64 = { name = mouth_upper_lip_curve   range = { 0.45 0.55 }      }
        17 = { name = mouth_upper_lip_curve   range = { 0.55 0.8 }      }
        1 = { name = mouth_upper_lip_curve   range = { 0.8 0.9 }      }

    }

    gene_mouth_upper_lip_def = {

        1 = { name = mouth_upper_lip_def   range = { 0.1 0.2 }      }
        17 = { name = mouth_upper_lip_def   range = { 0.2 0.45 }      }
        64 = { name = mouth_upper_lip_def   range = { 0.45 0.55 }      }
        17 = { name = mouth_upper_lip_def   range = { 0.55 0.8 }      }
        1 = { name = mouth_upper_lip_def   range = { 0.8 0.9 }      }

    }

    gene_mouth_upper_lip_full = {

        1 = { name = mouth_upper_lip_full   range = { 0.1 0.2 }      }
        17 = { name = mouth_upper_lip_full   range = { 0.2 0.45 }      }
        64 = { name = mouth_upper_lip_full   range = { 0.45 0.55 }      }
        17 = { name = mouth_upper_lip_full   range = { 0.55 0.8 }      }
        1 = { name = mouth_upper_lip_full   range = { 0.8 0.9 }      }

    }

    gene_mouth_upper_lip_width = {

        1 = { name = mouth_upper_lip_width   range = { 0.1 0.2 }      }
        7 = { name = mouth_upper_lip_width   range = { 0.2 0.45 }      }
        84 = { name = mouth_upper_lip_width   range = { 0.45 0.55 }      }
        7 = { name = mouth_upper_lip_width   range = { 0.55 0.8 }      }
        1 = { name = mouth_upper_lip_width   range = { 0.8 0.9 }      }

    }

    gene_nose_curve = {

        1 = { name = nose_curve   range = { 0.1 0.2 }      }
        12 = { name = nose_curve   range = { 0.2 0.45 }      }
        74 = { name = nose_curve   range = { 0.45 0.55 }      }
        12 = { name = nose_curve   range = { 0.55 0.8 }      }
        1 = { name = nose_curve   range = { 0.8 0.9 }      }

    }

    gene_nose_forward = {

        1 = { name = nose_forward   range = { 0.1 0.2 }      }
        12 = { name = nose_forward   range = { 0.2 0.45 }      }
        74 = { name = nose_forward   range = { 0.45 0.55 }      }
        12 = { name = nose_forward   range = { 0.55 0.8 }      }
        1 = { name = nose_forward   range = { 0.8 0.9 }      }

    }

    gene_nose_hawk = {

        1 = { name = nose_hawk   range = { 0.1 0.2 }      }
        7 = { name = nose_hawk   range = { 0.2 0.45 }      }
        84 = { name = nose_hawk   range = { 0.45 0.55 }      }
        7 = { name = nose_hawk   range = { 0.55 0.8 }      }
        1 = { name = nose_hawk   range = { 0.8 0.9 }      }

    }

    gene_nose_height = {

        1 = { name = nose_height   range = { 0.1 0.2 }      }
        17 = { name = nose_height   range = { 0.2 0.45 }      }
        64 = { name = nose_height   range = { 0.45 0.55 }      }
        17 = { name = nose_height   range = { 0.55 0.8 }      }
        1 = { name = nose_height   range = { 0.8 0.9 }      }

    }

    gene_nose_length = {

        1 = { name = nose_length   range = { 0.1 0.2 }      }
        7 = { name = nose_length   range = { 0.2 0.45 }      }
        84 = { name = nose_length   range = { 0.45 0.55 }      }
        7 = { name = nose_length   range = { 0.55 0.8 }      }
        1 = { name = nose_length   range = { 0.8 0.9 }      }

    }

    gene_nose_nostril_angle = {

        1 = { name = nose_nostril_angle   range = { 0.1 0.2 }      }
        7 = { name = nose_nostril_angle   range = { 0.2 0.45 }      }
        84 = { name = nose_nostril_angle   range = { 0.45 0.55 }      }
        7 = { name = nose_nostril_angle   range = { 0.55 0.8 }      }
        1 = { name = nose_nostril_angle   range = { 0.8 0.9 }      }

    }

    gene_nose_nostril_height = {

        1 = { name = nose_nostril_height   range = { 0.1 0.2 }      }
        7 = { name = nose_nostril_height   range = { 0.2 0.45 }      }
        84 = { name = nose_nostril_height   range = { 0.45 0.55 }      }
        7 = { name = nose_nostril_height   range = { 0.55 0.8 }      }
        1 = { name = nose_nostril_height   range = { 0.8 0.9 }      }

    }

    gene_nose_nostril_width = {

        0 = { name = nose_nostril_width   range = { 0.1 0.2 }      }
        7 = { name = nose_nostril_width   range = { 0.2 0.45 }      }
        84 = { name = nose_nostril_width   range = { 0.45 0.55 }      }
        17 = { name = nose_nostril_width   range = { 0.55 0.8 }      }
        1 = { name = nose_nostril_width   range = { 0.8 0.9 }      }

    }

    gene_nose_ridge_angle = {

        1 = { name = nose_ridge_angle   range = { 0.1 0.2 }      }
        17 = { name = nose_ridge_angle   range = { 0.2 0.45 }      }
        64 = { name = nose_ridge_angle   range = { 0.45 0.55 }      }
        17 = { name = nose_ridge_angle   range = { 0.55 0.8 }      }
        1 = { name = nose_ridge_angle   range = { 0.8 0.9 }      }

    }

    gene_nose_ridge_def = {

        1 = { name = nose_ridge_def   range = { 0.1 0.2 }      }
        7 = { name = nose_ridge_def   range = { 0.2 0.45 }      }
        84 = { name = nose_ridge_def   range = { 0.45 0.55 }      }
        7 = { name = nose_ridge_def   range = { 0.55 0.8 }      }
        1 = { name = nose_ridge_def   range = { 0.8 0.9 }      }

    }

    gene_nose_ridge_def_min = {

        1 = { name = nose_ridge_def_min   range = { 0.1 0.2 }      }
        7 = { name = nose_ridge_def_min   range = { 0.2 0.45 }      }
        84 = { name = nose_ridge_def_min   range = { 0.45 0.55 }      }
        7 = { name = nose_ridge_def_min   range = { 0.55 0.8 }      }
        1 = { name = nose_ridge_def_min   range = { 0.8 0.9 }      }

    }

    gene_nose_ridge_width = {

        0 = { name = nose_ridge_width   range = { 0.1 0.2 }      }
        7 = { name = nose_ridge_width   range = { 0.2 0.45 }      }
        84 = { name = nose_ridge_width   range = { 0.45 0.55 }      }
        7 = { name = nose_ridge_width   range = { 0.55 0.8 }      }
        1 = { name = nose_ridge_width   range = { 0.8 0.9 }      }

    }

    gene_nose_size = {

        0 = { name = nose_size   range = { 0.1 0.2 }      }
        7 = { name = nose_size   range = { 0.2 0.45 }      }
        74 = { name = nose_size   range = { 0.45 0.55 }      }
        17 = { name = nose_size   range = { 0.55 0.8 }      }
        1 = { name = nose_size   range = { 0.8 0.9 }      }

    }

    gene_nose_tip_angle = {

        1 = { name = nose_tip_angle   range = { 0.1 0.2 }      }
        7 = { name = nose_tip_angle   range = { 0.2 0.45 }      }
        84 = { name = nose_tip_angle   range = { 0.45 0.55 }      }
        7 = { name = nose_tip_angle   range = { 0.55 0.8 }      }
        1 = { name = nose_tip_angle   range = { 0.8 0.9 }      }

    }

    gene_nose_tip_forward = {

        1 = { name = nose_tip_forward   range = { 0.1 0.2 }      }
        7 = { name = nose_tip_forward   range = { 0.2 0.45 }      }
        84 = { name = nose_tip_forward   range = { 0.45 0.55 }      }
        7 = { name = nose_tip_forward   range = { 0.55 0.8 }      }
        1 = { name = nose_tip_forward   range = { 0.8 0.9 }      }

    }

    gene_nose_tip_width = {

        0 = { name = nose_tip_width   range = { 0.1 0.2 }      }
        7 = { name = nose_tip_width   range = { 0.2 0.45 }      }
        84 = { name = nose_tip_width   range = { 0.45 0.55 }      }
        17 = { name = nose_tip_width   range = { 0.55 0.8 }      }
        1 = { name = nose_tip_width   range = { 0.8 0.9 }      }

    }

	gene_bs_body_type = {

        7 = { name = body_fat_head_fat_low   range = { 0.2 0.45 }      }
        20 = { name = body_fat_head_fat_low   range = { 0.45 0.55 }     }
        7 = { name = body_fat_head_fat_low   range = { 0.55 0.8 }      }

        7 = { name = body_fat_head_fat_medium   range = { 0.2 0.45 }      }
        20 = { name = body_fat_head_fat_medium   range = { 0.45 0.55 }      }
        7 = { name = body_fat_head_fat_medium   range = { 0.55 0.8 }      }

        7 = { name = body_fat_head_fat_full   range = { 0.2 0.45 }      }
        20 = { name = body_fat_head_fat_full   range = {0.45 0.55 }      }
        7 = { name = body_fat_head_fat_full   range = { 0.55 0.8 }      }

	}

	gene_height = {

		1 = { name = normal_height   range = { 0.1 0.2 }      }
        7 = { name = normal_height   range = { 0.2 0.45 }      }
        84 = { name = normal_height   range = { 0.45 0.55 }      }
        7 = { name = normal_height   range = { 0.55 0.8 }      }
        1 = { name = normal_height   range = { 0.8 0.9 }      }

	}

	gene_old_eyes = {

		10 = { name = old_eyes_01   range = { 1.0 1.0 }      }
		10 = { name = old_eyes_02   range = { 1.0 1.0 }      }
		10 = { name = old_eyes_03   range = { 1.0 1.0 }      }
	}

	gene_old_forehead = {

		10 = { name = old_forehead_01   range = { 1.0 1.0 }      }
		10 = { name = old_forehead_02   range = { 1.0 1.0 }      }
		10 = { name = old_forehead_03   range = { 1.0 1.0 }      }
	}

	gene_old_mouth = {

		10 = { name = old_mouth_01   range = { 1.0 1.0 }      }
		10 = { name = old_mouth_02   range = { 1.0 1.0 }      }
		10 = { name = old_mouth_03   range = { 1.0 1.0 }      }
	}

	gene_complexion = {

		10 = { name = complexion_01   range = { 0.0 0.0 }      }
		10 = { name = complexion_02   range = { 0.0 0.0 }      }
		10 = { name = complexion_03   range = { 0.0 0.0 }      }
	}

	

	gene_crowfeet = {

		9 = { name = crowfeet_01   range = { 0.0 0.1 }      }
		1 = { name = crowfeet_01   range = { 0.1 0.8 }      }
		9 = { name = crowfeet_02   range = { 0.0 0.1 }      }
		1 = { name = crowfeet_02   range = { 0.1 0.8 }      }
		9 = { name = crowfeet_03   range = { 0.0 0.1 }      }
		1 = { name = crowfeet_03   range = { 0.1 0.8 }      }
	}

	gene_frown = {

		8 = { name = frown_01   range = { 0.0 0.1 }      }
		2 = { name = frown_01   range = { 0.1 0.8 }      }
		8 = { name = frown_02   range = { 0.0 0.1 }      }
		2 = { name = frown_02   range = { 0.1 0.8 }      }
		8 = { name = frown_03   range = { 0.0 0.1 }      }
		2 = { name = frown_03   range = { 0.1 0.8 }      }
	}

	gene_surprise = {

		9 = { name = surprise_01   range = { 0.0 0.1 }      }
		1 = { name = surprise_01   range = { 0.1 0.8 }      }
		9 = { name = surprise_02   range = { 0.0 0.1 }      }
		1 = { name = surprise_02   range = { 0.1 0.8 }      }
		9 = { name = surprise_03   range = { 0.0 0.1 }      }
		1 = { name = surprise_03   range = { 0.1 0.8 }      }
	}

    gene_eyebrows_shape = {
        10 = {  name = avg_spacing_avg_thickness             range = { 0.5 1.0 }     }
        2 = {  name = avg_spacing_high_thickness             range = { 0.5 1.0 }     }
        10 = {  name = avg_spacing_low_thickness             range = { 0.5 1.0 }    }
        10 = {  name = avg_spacing_lower_thickness             range = { 0.5 1.0 }    }

        10 = {  name = far_spacing_avg_thickness             range = { 0.5 1.0 }     }
        2 = {  name = far_spacing_high_thickness             range = { 0.5 1.0 }     }
        10 = {  name = far_spacing_low_thickness             range = { 0.5 1.0 }    }
        10 = {  name = far_spacing_lower_thickness             range = { 0.5 1.0 }    }

        10 = {  name = close_spacing_avg_thickness             range = { 0.5 1.0 }     }
        2 = {  name = close_spacing_high_thickness             range = { 0.5 1.0 }     }
        10 = {  name = close_spacing_low_thickness             range = { 0.5 1.0 }    }
        10 = {  name = close_spacing_lower_thickness             range = { 0.5 1.0 }    }
    }

    gene_eyebrows_fullness = {
        10 = {  name = layer_2_avg_thickness             range = { 0.25 0.5 }     }
        15 = {  name = layer_2_avg_thickness             range = { 0.5 0.75 }     }
        5 = {  name = layer_2_high_thickness             range = { 0.25 0.5 }     }
        5 = {  name = layer_2_high_thickness             range = { 0.5 0.75 }     }
        10 = {  name = layer_2_low_thickness             range = { 0.25 0.5 }     }
        15 = {  name = layer_2_low_thickness             range = { 0.5 0.75 }     }
        10 = {  name = layer_2_lower_thickness             range = { 0.25 0.5 }     }
        15 = {  name = layer_2_lower_thickness             range = { 0.5 0.75 }     }
    }

	hairstyles = {
		10 = { name = european_hairstyles 		range = { 0.0 1.0 } }
	}

	beards = {
		10 = { name = european_beards 		range = { 0.0 1.0 } }
	}

	mustaches = {
		10 = { name = european_mustaches 		range = { 0.0 1.0 } }
	}

	# coats = {
	# 	10 = { name = prussian_coats		range = { 0.0 1.0 } }
	# }

	# epaulettes = {
	# 	10 = { name = prussian_epaulettes		range = { 0.0 1.0 } }
	# }

	# sashes = {
	# 	10 = { name = prussian_sashes		range = { 0.0 1.0 } }
	# }

	# medals = {
	# 	10 = { name = all_medals		range = { 0.0 1.0 } }
	# }

	# headgear = {
	# 	10 = { name = generic_headgear		range = { 0.0 1.0 } }
	# }


}


somali_test = {


	skin_color = {
		10 = { 0.6 0.65 0.9 0.8 }
	}
	eye_color = {
		# Brown
		10 = { 0.05 0.7 0.35 1.0 }
		# Black
		90 = { 0.05 0.95 0.35 1.0 }
	}
	hair_color = {
		# Blonde
		# 10 = { 0.25 0.2 0.75 0.55 }
		# Brown
		2 = { 0.65 0.7 0.9 1.0 }
		# # Red
		# 10 = { 0.85 0.0 1.0 0.5 }
		# Black
		98 = { 0.01 0.9 0.5 0.99 }
	}


	### Additive anim genes ###
    gene_chin_forward = {

        1 = { name = chin_forward   range = { 0.1 0.2 }      }
        7 = { name = chin_forward   range = { 0.2 0.45 }      }
        84 = { name = chin_forward   range = { 0.45 0.55 }      }
        7 = { name = chin_forward   range = { 0.55 0.8 }      }
        1 = { name = chin_forward   range = { 0.8 0.9 }      }

    }

    gene_chin_height = {

        1 = { name = chin_height   range = { 0.1 0.2 }      }
        7 = { name = chin_height   range = { 0.2 0.45 }      }
        84 = { name = chin_height   range = { 0.45 0.55 }      }
        7 = { name = chin_height   range = { 0.55 0.8 }      }
        1 = { name = chin_height   range = { 0.8 0.9 }      }

    }

    gene_chin_width = {

        1 = { name = chin_width   range = { 0.1 0.2 }      }
        17 = { name = chin_width   range = { 0.2 0.45 }      }
        64 = { name = chin_width   range = { 0.45 0.55 }      }
        17 = { name = chin_width   range = { 0.55 0.8 }      }
        1 = { name = chin_width   range = { 0.8 0.9 }      }

    }

    gene_eye_angle = {

        0 = { name = eye_angle   range = { 0.1 0.2 }      }
        7 = { name = eye_angle   range = { 0.2 0.45 }      }
        84 = { name = eye_angle   range = { 0.45 0.55 }      }
        7 = { name = eye_angle   range = { 0.55 0.8 }      }
        0 = { name = eye_angle   range = { 0.8 0.9 }      }

    }

    gene_eye_depth = {

        1 = { name = eye_depth   range = { 0.1 0.2 }      }
        17 = { name = eye_depth   range = { 0.2 0.45 }      }
        64 = { name = eye_depth   range = { 0.45 0.55 }      }
        17 = { name = eye_depth   range = { 0.55 0.8 }      }
        1 = { name = eye_depth   range = { 0.8 0.9 }      }

    }

    gene_eye_distance = {

        1 = { name = eye_distance   range = { 0.1 0.2 }      }
        12 = { name = eye_distance   range = { 0.2 0.45 }      }
        74 = { name = eye_distance   range = { 0.45 0.55 }      }
        12 = { name = eye_distance   range = { 0.55 0.8 }      }
        1 = { name = eye_distance   range = { 0.8 0.9 }      }

    }

    gene_eye_height = {

        1 = { name = eye_height   range = { 0.1 0.2 }      }
        17 = { name = eye_height   range = { 0.2 0.45 }      }
        64 = { name = eye_height   range = { 0.45 0.55 }      }
        17 = { name = eye_height   range = { 0.55 0.8 }      }
        1 = { name = eye_height   range = { 0.8 0.9 }      }

    }

    gene_eye_shut = {

        1 = { name = eye_shut   range = { 0.1 0.2 }      }
        7 = { name = eye_shut   range = { 0.2 0.45 }      }
        84 = { name = eye_shut   range = { 0.45 0.55 }      }
        7 = { name = eye_shut   range = { 0.55 0.8 }      }
        1 = { name = eye_shut   range = { 0.8 0.9 }      }

    }

    gene_forehead_angle = {

        1 = { name = forehead_angle   range = { 0.1 0.2 }      }
        17 = { name = forehead_angle   range = { 0.2 0.45 }      }
        64 = { name = forehead_angle   range = { 0.45 0.55 }      }
        17 = { name = forehead_angle   range = { 0.55 0.8 }      }
        1 = { name = forehead_angle   range = { 0.8 0.9 }      }

    }

    gene_forehead_brow_height = {

        1 = { name = forehead_brow_height   range = { 0.1 0.2 }      }
        17 = { name = forehead_brow_height   range = { 0.2 0.45 }      }
        64 = { name = forehead_brow_height   range = { 0.45 0.55 }      }
        17 = { name = forehead_brow_height   range = { 0.55 0.8 }      }
        1 = { name = forehead_brow_height   range = { 0.8 0.9 }      }

    }

    gene_forehead_height = {

        1 = { name = forehead_height   range = { 0.1 0.2 }      }
        17 = { name = forehead_height   range = { 0.2 0.45 }      }
        64 = { name = forehead_height   range = { 0.45 0.55 }      }
        17 = { name = forehead_height   range = { 0.55 0.8 }      }
        1 = { name = forehead_height   range = { 0.8 0.9 }      }

    }

    gene_forehead_roundness = {

        1 = { name = forehead_roundness   range = { 0.1 0.2 }      }
        17 = { name = forehead_roundness   range = { 0.2 0.45 }      }
        64 = { name = forehead_roundness   range = { 0.45 0.55 }      }
        17 = { name = forehead_roundness   range = { 0.55 0.8 }      }
        1 = { name = forehead_roundness   range = { 0.8 0.9 }      }

    }

    gene_forehead_width = {

        1 = { name = forehead_width   range = { 0.1 0.2 }      }
        7 = { name = forehead_width   range = { 0.2 0.45 }      }
        84 = { name = forehead_width   range = { 0.45 0.55 }      }
        7 = { name = forehead_width   range = { 0.55 0.8 }      }
        1 = { name = forehead_width   range = { 0.8 0.9 }      }

    }

    gene_head_height = {

        1 = { name = head_height   range = { 0.1 0.2 }      }
        7 = { name = head_height   range = { 0.2 0.45 }      }
        84 = { name = head_height   range = { 0.45 0.55 }      }
        7 = { name = head_height   range = { 0.55 0.8 }      }
        1 = { name = head_height   range = { 0.8 0.9 }      }

    }

    gene_head_profile = {

        1 = { name = head_profile   range = { 0.1 0.2 }      }
        17 = { name = head_profile   range = { 0.2 0.45 }      }
        64 = { name = head_profile   range = { 0.45 0.55 }      }
        17 = { name = head_profile   range = { 0.55 0.8 }      }
        1 = { name = head_profile   range = { 0.8 0.9 }      }

    }

    gene_head_top_height = {

        1 = { name = head_top_height   range = { 0.1 0.2 }      }
        7 = { name = head_top_height   range = { 0.2 0.45 }      }
        84 = { name = head_top_height   range = { 0.45 0.55 }      }
        7 = { name = head_top_height   range = { 0.55 0.8 }      }
        1 = { name = head_top_height   range = { 0.8 0.9 }      }

    }

    gene_head_top_width = {

        1 = { name = head_top_width   range = { 0.1 0.2 }      }
        7 = { name = head_top_width   range = { 0.2 0.45 }      }
        84 = { name = head_top_width   range = { 0.45 0.55 }      }
        7 = { name = head_top_width   range = { 0.55 0.8 }      }
        1 = { name = head_top_width   range = { 0.8 0.9 }      }

    }

    gene_head_width = {

        1 = { name = head_width   range = { 0.1 0.2 }      }
        17 = { name = head_width   range = { 0.2 0.45 }      }
        64 = { name = head_width   range = { 0.45 0.55 }      }
        17 = { name = head_width   range = { 0.55 0.8 }      }
        1 = { name = head_width   range = { 0.8 0.9 }      }

    }

    gene_jaw_angle = {

        1 = { name = jaw_angle   range = { 0.1 0.2 }      }
        17 = { name = jaw_angle   range = { 0.2 0.45 }      }
        64 = { name = jaw_angle   range = { 0.45 0.55 }      }
        17 = { name = jaw_angle   range = { 0.55 0.8 }      }
        1 = { name = jaw_angle   range = { 0.8 0.9 }      }

    }

    gene_jaw_forward = {

        1 = { name = jaw_forward   range = { 0.1 0.2 }      }
        7 = { name = jaw_forward   range = { 0.2 0.45 }      }
        84 = { name = jaw_forward   range = { 0.45 0.55 }      }
        7 = { name = jaw_forward   range = { 0.55 0.8 }      }
        1 = { name = jaw_forward   range = { 0.8 0.9 }      }

    }

    gene_jaw_height = {

        1 = { name = jaw_height   range = { 0.1 0.2 }      }
        7 = { name = jaw_height   range = { 0.2 0.45 }      }
        84 = { name = jaw_height   range = { 0.45 0.55 }      }
        7 = { name = jaw_height   range = { 0.55 0.8 }      }
        1 = { name = jaw_height   range = { 0.8 0.9 }      }

    }

    gene_jaw_width = {

        1 = { name = jaw_width   range = { 0.1 0.2 }      }
        17 = { name = jaw_width   range = { 0.2 0.45 }      }
        64 = { name = jaw_width   range = { 0.45 0.55 }      }
        17 = { name = jaw_width   range = { 0.55 0.8 }      }
        1 = { name = jaw_width   range = { 0.8 0.9 }      }

    }

    gene_mouth_corner_height = {

        1 = { name = mouth_corner_height   range = { 0.1 0.2 }      }
        12 = { name = mouth_corner_height   range = { 0.2 0.45 }      }
        74 = { name = mouth_corner_height   range = { 0.45 0.55 }      }
        12 = { name = mouth_corner_height   range = { 0.55 0.8 }      }
        1 = { name = mouth_corner_height   range = { 0.8 0.9 }      }

    }

    gene_mouth_forward = {

        1 = { name = mouth_forward   range = { 0.1 0.2 }      }
        7 = { name = mouth_forward   range = { 0.2 0.45 }      }
        84 = { name = mouth_forward   range = { 0.45 0.55 }      }
        7 = { name = mouth_forward   range = { 0.55 0.8 }      }
        1 = { name = mouth_forward   range = { 0.8 0.9 }      }

    }

    gene_mouth_height = {

        1 = { name = mouth_height   range = { 0.1 0.2 }      }
        17 = { name = mouth_height   range = { 0.2 0.45 }      }
        64 = { name = mouth_height   range = { 0.45 0.55 }      }
        17 = { name = mouth_height   range = { 0.55 0.8 }      }
        1 = { name = mouth_height   range = { 0.8 0.9 }      }

    }

    gene_mouth_lower_lip_size = {

        1 = { name = mouth_lower_lip_size   range = { 0.1 0.2 }      }
        7 = { name = mouth_lower_lip_size   range = { 0.2 0.45 }      }
        84 = { name = mouth_lower_lip_size   range = { 0.45 0.55 }      }
        7 = { name = mouth_lower_lip_size   range = { 0.55 0.8 }      }
        1 = { name = mouth_lower_lip_size   range = { 0.8 0.9 }      }

    }

    gene_mouth_open = {

        1 = { name = mouth_open   range = { 0.1 0.2 }      }
        7 = { name = mouth_open   range = { 0.2 0.45 }      }
        84 = { name = mouth_open   range = { 0.45 0.55 }      }
        7 = { name = mouth_open   range = { 0.55 0.8 }      }
        1 = { name = mouth_open   range = { 0.8 0.9 }      }

    }

    gene_mouth_upper_lip_size = {

        1 = { name = mouth_upper_lip_size   range = { 0.1 0.2 }      }
        7 = { name = mouth_upper_lip_size   range = { 0.2 0.45 }      }
        84 = { name = mouth_upper_lip_size   range = { 0.45 0.55 }      }
        7 = { name = mouth_upper_lip_size   range = { 0.55 0.8 }      }
        1 = { name = mouth_upper_lip_size   range = { 0.8 0.9 }      }

    }

    gene_mouth_width = {

        1 = { name = mouth_width   range = { 0.1 0.2 }      }
        17 = { name = mouth_width   range = { 0.2 0.45 }      }
        64 = { name = mouth_width   range = { 0.45 0.55 }      }
        17 = { name = mouth_width   range = { 0.55 0.8 }      }
        1 = { name = mouth_width   range = { 0.8 0.9 }      }

    }

    gene_neck_length = {

        1 = { name = neck_length   range = { 0.1 0.2 }      }
        17 = { name = neck_length   range = { 0.2 0.45 }      }
        64 = { name = neck_length   range = { 0.45 0.55 }      }
        17 = { name = neck_length   range = { 0.55 0.8 }      }
        1 = { name = neck_length   range = { 0.8 0.9 }      }

    }

    gene_neck_width = {

        1 = { name = neck_width   range = { 0.1 0.2 }      }
        17 = { name = neck_width   range = { 0.2 0.45 }      }
        64 = { name = neck_width   range = { 0.45 0.55 }      }
        17 = { name = neck_width   range = { 0.55 0.8 }      }
        1 = { name = neck_width   range = { 0.8 0.9 }      }

    }

    ### Blend shape genes ###
    gene_cheek_fat = {

        1 = { name = cheek_fat   range = { 0.1 0.2 }      }
        17 = { name = cheek_fat   range = { 0.2 0.45 }      }
        64 = { name = cheek_fat   range = { 0.45 0.55 }      }
        17 = { name = cheek_fat   range = { 0.55 0.8 }      }
        1 = { name = cheek_fat   range = { 0.8 0.9 }      }

    }

    gene_cheek_forward = {

        1 = { name = cheek_forward   range = { 0.1 0.2 }      }
        7 = { name = cheek_forward   range = { 0.2 0.45 }      }
        84 = { name = cheek_forward   range = { 0.45 0.55 }      }
        7 = { name = cheek_forward   range = { 0.55 0.8 }      }
        1 = { name = cheek_forward   range = { 0.8 0.9 }      }

    }

    gene_cheek_height = {

        1 = { name = cheek_height   range = { 0.1 0.2 }      }
        7 = { name = cheek_height   range = { 0.2 0.45 }      }
        84 = { name = cheek_height   range = { 0.45 0.55 }      }
        7 = { name = cheek_height   range = { 0.55 0.8 }      }
        1 = { name = cheek_height   range = { 0.8 0.9 }      }

    }

    gene_cheek_prom = {

        1 = { name = cheek_prom   range = { 0.1 0.2 }      }
        7 = { name = cheek_prom   range = { 0.2 0.45 }      }
        84 = { name = cheek_prom   range = { 0.45 0.55 }      }
        7 = { name = cheek_prom   range = { 0.55 0.8 }      }
        1 = { name = cheek_prom   range = { 0.8 0.9 }      }

    }

    gene_cheek_width = {

        1 = { name = cheek_width   range = { 0.1 0.2 }      }
        7 = { name = cheek_width   range = { 0.2 0.45 }      }
        84 = { name = cheek_width   range = { 0.45 0.55 }      }
        7 = { name = cheek_width   range = { 0.55 0.8 }      }
        1 = { name = cheek_width   range = { 0.8 0.9 }      }

    }

    gene_ear_angle = {

        1 = { name = ear_angle   range = { 0.1 0.2 }      }
        17 = { name = ear_angle   range = { 0.2 0.45 }      }
        64 = { name = ear_angle   range = { 0.45 0.55 }      }
        17 = { name = ear_angle   range = { 0.55 0.8 }      }
        1 = { name = ear_angle   range = { 0.8 0.9 }      }

    }

    gene_ear_inner_shape = {

        1 = { name = ear_inner_shape   range = { 0.1 0.2 }      }
        17 = { name = ear_inner_shape   range = { 0.2 0.45 }      }
        64 = { name = ear_inner_shape   range = { 0.45 0.55 }      }
        17 = { name = ear_inner_shape   range = { 0.55 0.8 }      }
        1 = { name = ear_inner_shape   range = { 0.8 0.9 }      }

    }

    gene_ear_lower_bend = {

        1 = { name = ear_lower_bend   range = { 0.1 0.2 }      }
        17 = { name = ear_lower_bend   range = { 0.2 0.45 }      }
        64 = { name = ear_lower_bend   range = { 0.45 0.55 }      }
        17 = { name = ear_lower_bend   range = { 0.55 0.8 }      }
        1 = { name = ear_lower_bend   range = { 0.8 0.9 }      }

    }

    gene_ear_out = {

        1 = { name = ear_out   range = { 0.1 0.2 }      }
        17 = { name = ear_out   range = { 0.2 0.45 }      }
        64 = { name = ear_out   range = { 0.45 0.55 }      }
        17 = { name = ear_out   range = { 0.55 0.8 }      }
        1 = { name = ear_out   range = { 0.8 0.9 }      }

    }

    gene_ear_size = {

        1 = { name = ear_size   range = { 0.1 0.2 }      }
        7 = { name = ear_size   range = { 0.2 0.45 }      }
        84 = { name = ear_size   range = { 0.45 0.55 }      }
        7 = { name = ear_size   range = { 0.55 0.8 }      }
        1 = { name = ear_size   range = { 0.8 0.9 }      }

    }

    gene_ear_upper_bend = {

        1 = { name = ear_upper_bend   range = { 0.1 0.2 }      }
        7 = { name = ear_upper_bend   range = { 0.2 0.45 }      }
        84 = { name = ear_upper_bend   range = { 0.45 0.55 }      }
        7 = { name = ear_upper_bend   range = { 0.55 0.8 }      }
        1 = { name = ear_upper_bend   range = { 0.8 0.9 }      }

    }

    gene_eye_corner_def = {

        1 = { name = eye_corner_def   range = { 0.1 0.2 }      }
        7 = { name = eye_corner_def   range = { 0.2 0.45 }      }
        84 = { name = eye_corner_def   range = { 0.45 0.55 }      }
        7 = { name = eye_corner_def   range = { 0.55 0.8 }      }
        1 = { name = eye_corner_def   range = { 0.8 0.9 }      }

    }

    gene_eye_corner_depth_min = {

        1 = { name = eye_corner_depth_min   range = { 0.1 0.2 }      }
        17 = { name = eye_corner_depth_min   range = { 0.2 0.45 }      }
        64 = { name = eye_corner_depth_min   range = { 0.45 0.55 }      }
        17 = { name = eye_corner_depth_min   range = { 0.55 0.8 }      }
        1 = { name = eye_corner_depth_min   range = { 0.8 0.9 }      }

    }

    gene_eye_fold_droop = {

        1 = { name = eye_fold_droop   range = { 0.1 0.2 }      }
        17 = { name = eye_fold_droop   range = { 0.2 0.45 }      }
        64 = { name = eye_fold_droop   range = { 0.45 0.55 }      }
        17 = { name = eye_fold_droop   range = { 0.55 0.8 }      }
        1 = { name = eye_fold_droop   range = { 0.8 0.9 }      }

    }

    gene_eye_fold_shape = {

        1 = { name = eye_fold_shape   range = { 0.1 0.2 }      }
        17 = { name = eye_fold_shape   range = { 0.2 0.45 }      }
        64 = { name = eye_fold_shape   range = { 0.45 0.55 }      }
        17 = { name = eye_fold_shape   range = { 0.55 0.8 }      }
        1 = { name = eye_fold_shape   range = { 0.8 0.9 }      }

    }

    gene_eye_size = {

        1 = { name = eye_size   range = { 0.1 0.2 }      }
        17 = { name = eye_size   range = { 0.2 0.45 }      }
        64 = { name = eye_size   range = { 0.45 0.55 }      }
        17 = { name = eye_size   range = { 0.55 0.8 }      }
        1 = { name = eye_size   range = { 0.8 0.9 }      }

    }

    gene_eye_upper_lid_size = {

        1 = { name = eye_upper_lid_size   range = { 0.1 0.2 }      }
        17 = { name = eye_upper_lid_size   range = { 0.2 0.45 }      }
        64 = { name = eye_upper_lid_size   range = { 0.45 0.55 }      }
        17 = { name = eye_upper_lid_size   range = { 0.55 0.8 }      }
        1 = { name = eye_upper_lid_size   range = { 0.8 0.9 }      }

    }

    gene_forehead_brow_curve = {

        1 = { name = forehead_brow_curve   range = { 0.1 0.2 }      }
        17 = { name = forehead_brow_curve   range = { 0.2 0.45 }      }
        64 = { name = forehead_brow_curve   range = { 0.45 0.55 }      }
        17 = { name = forehead_brow_curve   range = { 0.55 0.8 }      }
        1 = { name = forehead_brow_curve   range = { 0.8 0.9 }      }

    }

    gene_forehead_brow_forward = {

        1 = { name = forehead_brow_forward   range = { 0.1 0.2 }      }
        7 = { name = forehead_brow_forward   range = { 0.2 0.45 }      }
        84 = { name = forehead_brow_forward   range = { 0.45 0.55 }      }
        7 = { name = forehead_brow_forward   range = { 0.55 0.8 }      }
        1 = { name = forehead_brow_forward   range = { 0.8 0.9 }      }

    }

    gene_forehead_brow_inner_height = {

        1 = { name = forehead_brow_inner_height   range = { 0.1 0.2 }      }
        7 = { name = forehead_brow_inner_height   range = { 0.2 0.45 }      }
        84 = { name = forehead_brow_inner_height   range = { 0.45 0.55 }      }
        7 = { name = forehead_brow_inner_height   range = { 0.55 0.8 }      }
        1 = { name = forehead_brow_inner_height   range = { 0.8 0.9 }      }

    }

    gene_forehead_brow_outer_height = {

        1 = { name = forehead_brow_outer_height   range = { 0.1 0.2 }      }
        7 = { name = forehead_brow_outer_height   range = { 0.2 0.45 }      }
        84 = { name = forehead_brow_outer_height   range = { 0.45 0.55 }      }
        7 = { name = forehead_brow_outer_height   range = { 0.55 0.8 }      }
        1 = { name = forehead_brow_outer_height   range = { 0.8 0.9 }      }

    }

    gene_forehead_brow_width = {

        1 = { name = forehead_brow_width   range = { 0.1 0.2 }      }
        7 = { name = forehead_brow_width   range = { 0.2 0.45 }      }
        84 = { name = forehead_brow_width   range = { 0.45 0.55 }      }
        7 = { name = forehead_brow_width   range = { 0.55 0.8 }      }
        1 = { name = forehead_brow_width   range = { 0.8 0.9 }      }

    }

    gene_forehead_roundness = {

        1 = { name = forehead_roundness   range = { 0.1 0.2 }      }
        17 = { name = forehead_roundness   range = { 0.2 0.45 }      }
        64 = { name = forehead_roundness   range = { 0.45 0.55 }      }
        17 = { name = forehead_roundness   range = { 0.55 0.8 }      }
        1 = { name = forehead_roundness   range = { 0.8 0.9 }      }

    }

    gene_jaw_def = {

        1 = { name = jaw_def   range = { 0.1 0.2 }      }
        17 = { name = jaw_def   range = { 0.2 0.45 }      }
        64 = { name = jaw_def   range = { 0.45 0.55 }      }
        17 = { name = jaw_def   range = { 0.55 0.8 }      }
        1 = { name = jaw_def   range = { 0.8 0.9 }      }

    }

    gene_mouth_lower_lip_def = {

        1 = { name = mouth_lower_lip_def   range = { 0.1 0.2 }      }
        17 = { name = mouth_lower_lip_def   range = { 0.2 0.45 }      }
        64 = { name = mouth_lower_lip_def   range = { 0.45 0.55 }      }
        17 = { name = mouth_lower_lip_def   range = { 0.55 0.8 }      }
        1 = { name = mouth_lower_lip_def   range = { 0.8 0.9 }      }

    }

    gene_mouth_lower_lip_full = {

        1 = { name = mouth_lower_lip_full   range = { 0.1 0.2 }      }
        17 = { name = mouth_lower_lip_full   range = { 0.2 0.45 }      }
        64 = { name = mouth_lower_lip_full   range = { 0.45 0.55 }      }
        17 = { name = mouth_lower_lip_full   range = { 0.55 0.8 }      }
        1 = { name = mouth_lower_lip_full   range = { 0.8 0.9 }      }

    }

    gene_mouth_lower_lip_pads = {

        1 = { name = mouth_lower_lip_pads   range = { 0.1 0.2 }      }
        17 = { name = mouth_lower_lip_pads   range = { 0.2 0.45 }      }
        64 = { name = mouth_lower_lip_pads   range = { 0.45 0.55 }      }
        17 = { name = mouth_lower_lip_pads   range = { 0.55 0.8 }      }
        1 = { name = mouth_lower_lip_pads   range = { 0.8 0.9 }      }

    }

    gene_mouth_lower_lip_width = {

        1 = { name = mouth_lower_lip_width   range = { 0.1 0.2 }      }
        7 = { name = mouth_lower_lip_width   range = { 0.2 0.45 }      }
        84 = { name = mouth_lower_lip_width   range = { 0.45 0.55 }      }
        7 = { name = mouth_lower_lip_width   range = { 0.55 0.8 }      }
        1 = { name = mouth_lower_lip_width   range = { 0.8 0.9 }      }

    }

    gene_mouth_philtrum_curve = {

        1 = { name = mouth_philtrum_curve   range = { 0.1 0.2 }      }
        17 = { name = mouth_philtrum_curve   range = { 0.2 0.45 }      }
        64 = { name = mouth_philtrum_curve   range = { 0.45 0.55 }      }
        17 = { name = mouth_philtrum_curve   range = { 0.55 0.8 }      }
        1 = { name = mouth_philtrum_curve   range = { 0.8 0.9 }      }

    }

    gene_mouth_philtrum_def = {

        1 = { name = mouth_philtrum_def   range = { 0.1 0.2 }      }
        17 = { name = mouth_philtrum_def   range = { 0.2 0.45 }      }
        64 = { name = mouth_philtrum_def   range = { 0.45 0.55 }      }
        17 = { name = mouth_philtrum_def   range = { 0.55 0.8 }      }
        1 = { name = mouth_philtrum_def   range = { 0.8 0.9 }      }

    }

    gene_mouth_philtrum_width = {

        1 = { name = mouth_philtrum_width   range = { 0.1 0.2 }      }
        7 = { name = mouth_philtrum_width   range = { 0.2 0.45 }      }
        84 = { name = mouth_philtrum_width   range = { 0.45 0.55 }      }
        7 = { name = mouth_philtrum_width   range = { 0.55 0.8 }      }
        1 = { name = mouth_philtrum_width   range = { 0.8 0.9 }      }

    }

    gene_mouth_upper_lip_curve = {

        1 = { name = mouth_upper_lip_curve   range = { 0.1 0.2 }      }
        17 = { name = mouth_upper_lip_curve   range = { 0.2 0.45 }      }
        64 = { name = mouth_upper_lip_curve   range = { 0.45 0.55 }      }
        17 = { name = mouth_upper_lip_curve   range = { 0.55 0.8 }      }
        1 = { name = mouth_upper_lip_curve   range = { 0.8 0.9 }      }

    }

    gene_mouth_upper_lip_def = {

        1 = { name = mouth_upper_lip_def   range = { 0.1 0.2 }      }
        17 = { name = mouth_upper_lip_def   range = { 0.2 0.45 }      }
        64 = { name = mouth_upper_lip_def   range = { 0.45 0.55 }      }
        17 = { name = mouth_upper_lip_def   range = { 0.55 0.8 }      }
        1 = { name = mouth_upper_lip_def   range = { 0.8 0.9 }      }

    }

    gene_mouth_upper_lip_full = {

        1 = { name = mouth_upper_lip_full   range = { 0.1 0.2 }      }
        17 = { name = mouth_upper_lip_full   range = { 0.2 0.45 }      }
        64 = { name = mouth_upper_lip_full   range = { 0.45 0.55 }      }
        17 = { name = mouth_upper_lip_full   range = { 0.55 0.8 }      }
        1 = { name = mouth_upper_lip_full   range = { 0.8 0.9 }      }

    }

    gene_mouth_upper_lip_width = {

        1 = { name = mouth_upper_lip_width   range = { 0.1 0.2 }      }
        7 = { name = mouth_upper_lip_width   range = { 0.2 0.45 }      }
        84 = { name = mouth_upper_lip_width   range = { 0.45 0.55 }      }
        7 = { name = mouth_upper_lip_width   range = { 0.55 0.8 }      }
        1 = { name = mouth_upper_lip_width   range = { 0.8 0.9 }      }

    }

    gene_nose_curve = {

        1 = { name = nose_curve   range = { 0.1 0.2 }      }
        12 = { name = nose_curve   range = { 0.2 0.45 }      }
        74 = { name = nose_curve   range = { 0.45 0.55 }      }
        12 = { name = nose_curve   range = { 0.55 0.8 }      }
        1 = { name = nose_curve   range = { 0.8 0.9 }      }

    }

    gene_nose_forward = {

        1 = { name = nose_forward   range = { 0.1 0.2 }      }
        12 = { name = nose_forward   range = { 0.2 0.45 }      }
        74 = { name = nose_forward   range = { 0.45 0.55 }      }
        12 = { name = nose_forward   range = { 0.55 0.8 }      }
        1 = { name = nose_forward   range = { 0.8 0.9 }      }

    }

    gene_nose_hawk = {

        1 = { name = nose_hawk   range = { 0.1 0.2 }      }
        7 = { name = nose_hawk   range = { 0.2 0.45 }      }
        84 = { name = nose_hawk   range = { 0.45 0.55 }      }
        7 = { name = nose_hawk   range = { 0.55 0.8 }      }
        1 = { name = nose_hawk   range = { 0.8 0.9 }      }

    }

    gene_nose_height = {

        1 = { name = nose_height   range = { 0.1 0.2 }      }
        17 = { name = nose_height   range = { 0.2 0.45 }      }
        64 = { name = nose_height   range = { 0.45 0.55 }      }
        17 = { name = nose_height   range = { 0.55 0.8 }      }
        1 = { name = nose_height   range = { 0.8 0.9 }      }

    }

    gene_nose_length = {

        1 = { name = nose_length   range = { 0.1 0.2 }      }
        7 = { name = nose_length   range = { 0.2 0.45 }      }
        84 = { name = nose_length   range = { 0.45 0.55 }      }
        7 = { name = nose_length   range = { 0.55 0.8 }      }
        1 = { name = nose_length   range = { 0.8 0.9 }      }

    }

    gene_nose_nostril_angle = {

        1 = { name = nose_nostril_angle   range = { 0.1 0.2 }      }
        7 = { name = nose_nostril_angle   range = { 0.2 0.45 }      }
        84 = { name = nose_nostril_angle   range = { 0.45 0.55 }      }
        7 = { name = nose_nostril_angle   range = { 0.55 0.8 }      }
        1 = { name = nose_nostril_angle   range = { 0.8 0.9 }      }

    }

    gene_nose_nostril_height = {

        1 = { name = nose_nostril_height   range = { 0.1 0.2 }      }
        7 = { name = nose_nostril_height   range = { 0.2 0.45 }      }
        84 = { name = nose_nostril_height   range = { 0.45 0.55 }      }
        7 = { name = nose_nostril_height   range = { 0.55 0.8 }      }
        1 = { name = nose_nostril_height   range = { 0.8 0.9 }      }

    }

    gene_nose_nostril_width = {

        0 = { name = nose_nostril_width   range = { 0.1 0.2 }      }
        7 = { name = nose_nostril_width   range = { 0.2 0.45 }      }
        84 = { name = nose_nostril_width   range = { 0.45 0.55 }      }
        17 = { name = nose_nostril_width   range = { 0.55 0.8 }      }
        1 = { name = nose_nostril_width   range = { 0.8 0.9 }      }

    }

    gene_nose_ridge_angle = {

        1 = { name = nose_ridge_angle   range = { 0.1 0.2 }      }
        17 = { name = nose_ridge_angle   range = { 0.2 0.45 }      }
        64 = { name = nose_ridge_angle   range = { 0.45 0.55 }      }
        17 = { name = nose_ridge_angle   range = { 0.55 0.8 }      }
        1 = { name = nose_ridge_angle   range = { 0.8 0.9 }      }

    }

    gene_nose_ridge_def = {

        1 = { name = nose_ridge_def   range = { 0.1 0.2 }      }
        7 = { name = nose_ridge_def   range = { 0.2 0.45 }      }
        84 = { name = nose_ridge_def   range = { 0.45 0.55 }      }
        7 = { name = nose_ridge_def   range = { 0.55 0.8 }      }
        1 = { name = nose_ridge_def   range = { 0.8 0.9 }      }

    }

    gene_nose_ridge_def_min = {

        1 = { name = nose_ridge_def_min   range = { 0.1 0.2 }      }
        7 = { name = nose_ridge_def_min   range = { 0.2 0.45 }      }
        84 = { name = nose_ridge_def_min   range = { 0.45 0.55 }      }
        7 = { name = nose_ridge_def_min   range = { 0.55 0.8 }      }
        1 = { name = nose_ridge_def_min   range = { 0.8 0.9 }      }

    }

    gene_nose_ridge_width = {

        0 = { name = nose_ridge_width   range = { 0.1 0.2 }      }
        7 = { name = nose_ridge_width   range = { 0.2 0.45 }      }
        84 = { name = nose_ridge_width   range = { 0.45 0.55 }      }
        7 = { name = nose_ridge_width   range = { 0.55 0.8 }      }
        1 = { name = nose_ridge_width   range = { 0.8 0.9 }      }

    }

    gene_nose_size = {

        0 = { name = nose_size   range = { 0.1 0.2 }      }
        7 = { name = nose_size   range = { 0.2 0.45 }      }
        74 = { name = nose_size   range = { 0.45 0.55 }      }
        17 = { name = nose_size   range = { 0.55 0.8 }      }
        1 = { name = nose_size   range = { 0.8 0.9 }      }

    }

    gene_nose_tip_angle = {

        1 = { name = nose_tip_angle   range = { 0.1 0.2 }      }
        7 = { name = nose_tip_angle   range = { 0.2 0.45 }      }
        84 = { name = nose_tip_angle   range = { 0.45 0.55 }      }
        7 = { name = nose_tip_angle   range = { 0.55 0.8 }      }
        1 = { name = nose_tip_angle   range = { 0.8 0.9 }      }

    }

    gene_nose_tip_forward = {

        1 = { name = nose_tip_forward   range = { 0.1 0.2 }      }
        7 = { name = nose_tip_forward   range = { 0.2 0.45 }      }
        84 = { name = nose_tip_forward   range = { 0.45 0.55 }      }
        7 = { name = nose_tip_forward   range = { 0.55 0.8 }      }
        1 = { name = nose_tip_forward   range = { 0.8 0.9 }      }

    }

    gene_nose_tip_width = {

        0 = { name = nose_tip_width   range = { 0.1 0.2 }      }
        7 = { name = nose_tip_width   range = { 0.2 0.45 }      }
        84 = { name = nose_tip_width   range = { 0.45 0.55 }      }
        17 = { name = nose_tip_width   range = { 0.55 0.8 }      }
        1 = { name = nose_tip_width   range = { 0.8 0.9 }      }

    }

	gene_bs_body_type = {

        7 = { name = body_fat_head_fat_low   range = { 0.2 0.45 }      }
        20 = { name = body_fat_head_fat_low   range = { 0.45 0.55 }     }
        7 = { name = body_fat_head_fat_low   range = { 0.55 0.8 }      }

        7 = { name = body_fat_head_fat_medium   range = { 0.2 0.45 }      }
        20 = { name = body_fat_head_fat_medium   range = { 0.45 0.55 }      }
        7 = { name = body_fat_head_fat_medium   range = { 0.55 0.8 }      }

        7 = { name = body_fat_head_fat_full   range = { 0.2 0.45 }      }
        20 = { name = body_fat_head_fat_full   range = {0.45 0.55 }      }
        7 = { name = body_fat_head_fat_full   range = { 0.55 0.8 }      }

	}

	gene_height = {

		1 = { name = normal_height   range = { 0.1 0.2 }      }
        7 = { name = normal_height   range = { 0.2 0.45 }      }
        84 = { name = normal_height   range = { 0.45 0.55 }      }
        7 = { name = normal_height   range = { 0.55 0.8 }      }
        1 = { name = normal_height   range = { 0.8 0.9 }      }

	}

	gene_old_eyes = {

		10 = { name = old_eyes_01   range = { 1.0 1.0 }      }
		10 = { name = old_eyes_02   range = { 1.0 1.0 }      }
		10 = { name = old_eyes_03   range = { 1.0 1.0 }      }
	}

	gene_old_forehead = {

		10 = { name = old_forehead_01   range = { 1.0 1.0 }      }
		10 = { name = old_forehead_02   range = { 1.0 1.0 }      }
		10 = { name = old_forehead_03   range = { 1.0 1.0 }      }
	}

	gene_old_mouth = {

		10 = { name = old_mouth_01   range = { 1.0 1.0 }      }
		10 = { name = old_mouth_02   range = { 1.0 1.0 }      }
		10 = { name = old_mouth_03   range = { 1.0 1.0 }      }
	}

	gene_complexion = {

		10 = { name = complexion_01   range = { 0.0 0.0 }      }
		10 = { name = complexion_02   range = { 0.0 0.0 }      }
		10 = { name = complexion_03   range = { 0.0 0.0 }      }
	}



	gene_crowfeet = {

		9 = { name = crowfeet_01   range = { 0.0 0.1 }      }
		1 = { name = crowfeet_01   range = { 0.1 0.8 }      }
		9 = { name = crowfeet_02   range = { 0.0 0.1 }      }
		1 = { name = crowfeet_02   range = { 0.1 0.8 }      }
		9 = { name = crowfeet_03   range = { 0.0 0.1 }      }
		1 = { name = crowfeet_03   range = { 0.1 0.8 }      }
	}

	gene_frown = {

		8 = { name = frown_01   range = { 0.0 0.1 }      }
		2 = { name = frown_01   range = { 0.1 0.8 }      }
		8 = { name = frown_02   range = { 0.0 0.1 }      }
		2 = { name = frown_02   range = { 0.1 0.8 }      }
		8 = { name = frown_03   range = { 0.0 0.1 }      }
		2 = { name = frown_03   range = { 0.1 0.8 }      }
	}

	gene_surprise = {

		9 = { name = surprise_01   range = { 0.0 0.1 }      }
		1 = { name = surprise_01   range = { 0.1 0.8 }      }
		9 = { name = surprise_02   range = { 0.0 0.1 }      }
		1 = { name = surprise_02   range = { 0.1 0.8 }      }
		9 = { name = surprise_03   range = { 0.0 0.1 }      }
		1 = { name = surprise_03   range = { 0.1 0.8 }      }
	}

    gene_eyebrows_shape = {
        10 = {  name = avg_spacing_avg_thickness             range = { 0.5 1.0 }     }
        2 = {  name = avg_spacing_high_thickness             range = { 0.5 1.0 }     }
        10 = {  name = avg_spacing_low_thickness             range = { 0.5 1.0 }    }
        10 = {  name = avg_spacing_lower_thickness             range = { 0.5 1.0 }    }

        10 = {  name = far_spacing_avg_thickness             range = { 0.5 1.0 }     }
        2 = {  name = far_spacing_high_thickness             range = { 0.5 1.0 }     }
        10 = {  name = far_spacing_low_thickness             range = { 0.5 1.0 }    }
        10 = {  name = far_spacing_lower_thickness             range = { 0.5 1.0 }    }

        10 = {  name = close_spacing_avg_thickness             range = { 0.5 1.0 }     }
        2 = {  name = close_spacing_high_thickness             range = { 0.5 1.0 }     }
        10 = {  name = close_spacing_low_thickness             range = { 0.5 1.0 }    }
        10 = {  name = close_spacing_lower_thickness             range = { 0.5 1.0 }    }
    }

    gene_eyebrows_fullness = {
        10 = {  name = layer_2_avg_thickness             range = { 0.25 0.5 }     }
        15 = {  name = layer_2_avg_thickness             range = { 0.5 0.75 }     }
        5 = {  name = layer_2_high_thickness             range = { 0.25 0.5 }     }
        5 = {  name = layer_2_high_thickness             range = { 0.5 0.75 }     }
        10 = {  name = layer_2_low_thickness             range = { 0.25 0.5 }     }
        15 = {  name = layer_2_low_thickness             range = { 0.5 0.75 }     }
        10 = {  name = layer_2_lower_thickness             range = { 0.25 0.5 }     }
        15 = {  name = layer_2_lower_thickness             range = { 0.5 0.75 }     }
    }

	hairstyles = {
		10 = { name = european_hairstyles 		range = { 0.0 1.0 } }
	}

	beards = {
		10 = { name = european_beards 		range = { 0.0 1.0 } }
	}

	mustaches = {
		10 = { name = european_mustaches 		range = { 0.0 1.0 } }
	}

	# coats = {
	# 	10 = { name = prussian_coats		range = { 0.0 1.0 } }
	# }

	# epaulettes = {
	# 	10 = { name = prussian_epaulettes		range = { 0.0 1.0 } }
	# }

	# sashes = {
	# 	10 = { name = prussian_sashes		range = { 0.0 1.0 } }
	# }

	# medals = {
	# 	10 = { name = all_medals		range = { 0.0 1.0 } }
	# }

	# headgear = {
	# 	10 = { name = generic_headgear		range = { 0.0 1.0 } }
	# }


}

Default_temp = {
    visible = no
    template = "caucasian_base"
    # skin_color = {
    #   10 = { 0.0 0.1 0.5 0.15 }
    # }
    eye_color = {
        # Brown
        20 = { 0.05 0.5 0.33 0.8 }
        # Green
        20 = { 0.33 0.5 0.67 0.8 }
        # Blue
        60 = { 0.67 0.5 1.0 0.8 }
    }
    hair_color = {
        # # Blonde
        # 10 = { 0.25 0.2 0.75 0.25 }
        # Brown
        40 = { 0.65 0.65 0.9 0.8 }
        # # Red
        # 10 = { 0.85 0.0 1.0 0.5 }
        # # Black
        # 30 = { 0.0 0.9 0.5 1.0 }
    }


    gene_eyebrows_shape = {
        15 = {  name = avg_spacing_avg_thickness             range = { 0.5 1.0 }     }
        5 = {  name = avg_spacing_high_thickness             range = { 0.5 1.0 }     }
        15 = {  name = avg_spacing_low_thickness             range = { 0.5 1.0 }    }
        10 = {  name = avg_spacing_lower_thickness             range = { 0.5 1.0 }    }

        15 = {  name = far_spacing_avg_thickness             range = { 0.5 1.0 }     }
        5 = {  name = far_spacing_high_thickness             range = { 0.5 1.0 }     }
        15 = {  name = far_spacing_low_thickness             range = { 0.5 1.0 }    }
        10 = {  name = far_spacing_lower_thickness             range = { 0.5 1.0 }    }

        5 = {  name = close_spacing_avg_thickness             range = { 0.5 1.0 }     }
        2 = {  name = close_spacing_high_thickness             range = { 0.5 1.0 }     }
        2 = {  name = close_spacing_low_thickness             range = { 0.5 1.0 }    }
        2 = {  name = close_spacing_lower_thickness             range = { 0.5 1.0 }    }
    }

    gene_eyebrows_fullness = {
        # 10 = {  name = layer_2_avg_thickness             range = { 0.25 0.5 }     }
        10 = {  name = layer_2_avg_thickness             range = { 0.5 0.75 }     }
        # 5 = {  name = layer_2_high_thickness             range = { 0.25 0.5 }     }
        5 = {  name = layer_2_high_thickness             range = { 0.5 0.75 }     }
        # 10 = {  name = layer_2_low_thickness             range = { 0.25 0.5 }     }
        10 = {  name = layer_2_low_thickness             range = { 0.5 0.75 }     }
        10 = {  name = layer_2_lower_thickness             range = { 0.5 0.75 }     }
    }

hairstyles = {
        10 = { name = european_hairstyles       range = { 0.19 0.195 } }
    }
} 

