﻿namespace = metro

metro.1 = {
	type = country_event

	trigger = {
	}

	event_image = {
		video = "unspecific_trains"
	}

	duration = 3

	placement = ROOT

	on_created_soundeffect = "event:/SFX/UI/Alerts/event_appear"

	icon = "gfx/interface/icons/event_icons/event_industry.dds"

	title = metro.1.t
	desc = metro.1.d
	flavor = metro.1.f

	immediate = {
		capital = {
			save_scope_as = capital_scope
		}	
	}

	option = {
		name = metro.1.a
		default_option = yes
		capital = {
			add_modifier = {
				name = metro_system
			}
			add_loyalists_in_state = {
				pop_type = engineers
				value = 0.5
			}
		}
	}
	option = {
		name = metro.1.b
		default_option = yes
		capital = {
			add_modifier = {
				name = metro_system
			}
		}
		add_modifier = {
			name = metro_prestige
			months = long_modifier_time
		}
	}
}