﻿niger_river_expedition_location = { 
	if = {
		limit = {
			var:expedition_progress = 1
		}
		random_state = {
			limit = {
				state_region = s:STATE_NIGER_DELTA
			}
			save_scope_as = current_expedition_location
		}
	}
	
	if = {
		limit = {
			var:expedition_progress = 2
		}
		random_state = {
			limit = {
				state_region = s:STATE_BENIN
			}
			save_scope_as = current_expedition_location
		}
	}
	
	if = {
		limit = {
			var:expedition_progress = 3
		}
		random_state = {
			limit = {
				state_region = s:STATE_HAUSALAND
			}
			save_scope_as = current_expedition_location
		}
	}
	
	if = {
		limit = {
			var:expedition_progress = 4
		}
		random_state = {
			limit = {
				state_region = s:STATE_OUTER_HAUSALAND
			}
			save_scope_as = current_expedition_location
		}
	}

	if = {
		limit = {
			var:expedition_progress = 5
		}
		random_state = {
			limit = {
				state_region = s:STATE_TIMBUKTU
			}
			save_scope_as = current_expedition_location
		}
	}

	if = {
		limit = {
			var:expedition_progress = 6
		}
		random_state = {
			limit = {
				state_region = s:STATE_EASTERN_MALI
			}
			save_scope_as = current_expedition_location
		}
	}

	if = {
		limit = {
			var:expedition_progress = 7
		}
		random_state = {
			limit = {
				state_region = s:STATE_WESTERN_MALI
			}
			save_scope_as = current_expedition_location
		}
	}

	if = {
		limit = {
			var:expedition_progress = 8
		}
		random_state = {
			limit = {
				state_region = s:STATE_GUINEA
			}
			save_scope_as = current_expedition_location
		}
	}
}

west_america_expedition_location = {
	if = {
		limit = {
			var:expedition_progress = 1
		}
		random_state = {
			limit = {
				state_region = s:STATE_COLORADO
			}
			save_scope_as = current_expedition_location
		}
	} 

	if = {
		limit = {
			var:expedition_progress >= 8
		}
		random_state = {
			limit = {
				state_region = s:STATE_OREGON
			}
			save_scope_as = current_expedition_location
		}
	} 	

	else = {
		random_state = {
			limit = {
				state_region = s:STATE_UTAH
			}
			save_scope_as = current_expedition_location
		}
	}
}

central_africa_location_effect = {
	if = {
		limit = {
			var:expedition_progress = 1
		}
		random_state = {
			limit = {
				state_region = s:STATE_ZANZIBAR
			}
			save_scope_as = current_expedition_location
		}
	} 

	if = {
		limit = {
			var:expedition_progress = 2
		}
		random_state = {
			limit = {
				state_region = s:STATE_ZANZIBAR
			}
			save_scope_as = current_expedition_location
		}
	} 

	if = {
		limit = {
			var:expedition_progress = 3
		}
		random_state = {
			limit = {
				state_region = s:STATE_LINDI
			}
			save_scope_as = current_expedition_location
		}
	} 

	if = {
		limit = {
			var:expedition_progress = 4
		}
		random_state = {
			limit = {
				state_region = s:STATE_LINDI
			}
			save_scope_as = current_expedition_location
		}
	}

	if = {
		limit = {
			var:expedition_progress = 5
		}
		random_state = {
			limit = {
				state_region = s:STATE_TANGANYIKA
			}
			save_scope_as = current_expedition_location
		}
	} 

	if = {
		limit = {
			var:expedition_progress = 6
		}
		random_state = {
			limit = {
				state_region = s:STATE_TANGANYIKA
			}
			save_scope_as = current_expedition_location
		}
	} 

	if = {
		limit = {
			var:expedition_progress = 7
		}
		random_state = {
			limit = {
				state_region = s:STATE_TANGANYIKA
			}
			save_scope_as = current_expedition_location
		}
	} 

	if = {
		limit = {
			var:expedition_progress = 8
		}
		random_state = {
			limit = {
				state_region = s:STATE_UGANDA
			}
			save_scope_as = current_expedition_location
		}
	}
}

congo_river_expedition_location = { 
	if = {
		limit = {
			var:expedition_progress = 1
		}
		random_state = {
			limit = {
				state_region = s:STATE_BAS_CONGO
			}
			save_scope_as = current_expedition_location
		}
	}

	if = {
		limit = {
			var:expedition_progress = 2
		}
		random_state = {
			limit = {
				state_region = s:STATE_CONGO
			}
			save_scope_as = current_expedition_location
		}
	}
	
	if = {
		limit = {
			var:expedition_progress = 3
		}
		random_state = {
			limit = {
				state_region = s:STATE_EQUATEUR
			}
			save_scope_as = current_expedition_location
		}
	}

	if = {
		limit = {
			var:expedition_progress = 4
		}
		random_state = {
			limit = {
				state_region = s:STATE_EQUATEUR
			}
			save_scope_as = current_expedition_location
		}
	}

	if = {
		limit = {
			var:expedition_progress = 5
		}
		random_state = {
			limit = {
				state_region = s:STATE_CONGO_ORIENTALE
			}
			save_scope_as = current_expedition_location
		}
	}

	if = {
		limit = {
			var:expedition_progress = 6
		}

		random_state = {
			limit = {
				state_region = s:STATE_CONGO_ORIENTALE
			}
			save_scope_as = current_expedition_location
		}
	}

	if = {
		limit = {
			var:expedition_progress = 7
		}
		random_state = {
			limit = {
				state_region = s:STATE_KATANGA
			}
			save_scope_as = current_expedition_location
		}
	}

	if = {
		limit = {
			var:expedition_progress = 8
		}
		random_state = {
			limit = {
				state_region = s:STATE_KATANGA
			}
			save_scope_as = current_expedition_location
		}
	}
}


# Progress and Peril Effects
add_small_peril_effect = {
	change_variable = {
		name = expedition_peril
		add = 1
	}
	custom_tooltip = expedition_minor_peril_tt
}
add_medium_peril_effect = {
	change_variable = {
		name = expedition_peril
		add = 3
	}
	custom_tooltip = expedition_medium_peril_tt
}
add_large_peril_effect = {
	change_variable = {
		name = expedition_peril
		add = 5
	} 
	custom_tooltip = expedition_large_peril_tt
}

expedition_peril_decrease_small_effect = {
	change_variable = {
		name = expedition_peril
		add = -1
	}
	custom_tooltip = expedition_event_decreasing_peril_tt
}	

expedition_peril_decrease_medium_effect = {
	change_variable = {
		name = expedition_peril
		add = -2
	}
	custom_tooltip = expedition_event_decreasing_peril_tt
}

expedition_minor_progress_effect = {
	change_variable = {
		name = expedition_progress
		add = 1
	}
	custom_tooltip = expedition_minor_progress_tt
}
expedition_moderate_progress_effect = {
	change_variable = {
		name = expedition_progress
		add = 2
	}
	custom_tooltip = expedition_moderate_progress_tt
}
expedition_great_progress_effect = {
	change_variable = {
		name = expedition_progress
		add = 4
	}
	custom_tooltip = expedition_great_progress_tt
}
expedition_lose_progress_effect = {
	change_variable = {
		name = expedition_progress
		add = -1
	}
	custom_tooltip = expedition_lose_progress_tt
}

remove_expedition_events_effect = {
	remove_variable = crew_gets_malaria
	remove_variable = crew_gets_dysentery	
	remove_variable = hippo_sighted
	remove_variable = crew_member_drowns
	remove_variable = river_attack
	remove_variable = expedition_lost_mules
	remove_variable = expedition_more_taxes
	remove_variable = previous_expedition_grave
	remove_variable = river_crossing
	remove_variable = bear_sighting
	remove_variable = wildlife_photography
	remove_variable = mountain_discovered
	remove_variable = snow_falls
	remove_variable = plant_gathering
	remove_variable = expedition_lost
	remove_variable = expedition_rhino_hunt
	remove_variable = expedition_ear_beetle
	remove_variable = expedition_commander_vice
	remove_variable = expedition_geographic_study
	remove_variable = expedition_boat_repair
	remove_variable = expedition_white_fog
	remove_variable = expedition_crocodile_attack
	remove_variable = expedition_rear_column
	remove_variable = expedition_trading_enclave
	remove_variable = expedition_deep_jungle
	remove_variable = expedition_found_falls
	remove_variable = expedition_trading_gifts
	remove_variable = icebound_var
	remove_variable = transantarctic_mountains_var
	remove_variable = jump_river_fail_var
	remove_variable = jump_river_success_var
	remove_variable = disciplinary_sanctions_var
	remove_variable = build_a_fort_var
	remove_variable = crazy_explorer_var
	remove_variable = kidnapped_ambassador_var
	remove_variable = expedition_quest_var
	remove_variable = team_disobeys_var
	remove_variable = expedition_baby_var
	remove_variable = guide_advice_var
	remove_variable = leaders_breakdown_var
	remove_variable = expedition_thief_var
	remove_variable = cancelled_expedition_var
	remove_variable = strange_rock_var
	remove_variable = found_explorer_var
	remove_variable = expedition_lost_expedition_var
	remove_variable = killed_lost_expedition_var
	remove_variable = south_pole_event_var
	remove_variable = pack_ice
	remove_variable = discovery_hut_var
	remove_variable = transantarctic_mountains_var
	remove_variable = mountain_spotted
	remove_variable = native_guide_var
	remove_variable = no_extra_expenses_var
	
	remove_modifier = expedition_taxes_modifier

	random_scope_character = {
		limit = { has_variable = expedition_leader_var }
		set_character_busy = no
	}

	set_variable = {
		name = help_from_locals
		value = no
	}
}